EESchema Schematic File Version 2
LIBS:power
LIBS:device
LIBS:transistors
LIBS:conn
LIBS:linear
LIBS:regul
LIBS:74xx
LIBS:cmos4000
LIBS:adc-dac
LIBS:memory
LIBS:xilinx
LIBS:special
LIBS:microcontrollers
LIBS:dsp
LIBS:microchip
LIBS:analog_switches
LIBS:motorola
LIBS:texas
LIBS:intel
LIBS:audio
LIBS:interface
LIBS:digital-audio
LIBS:philips
LIBS:display
LIBS:cypress
LIBS:siliconi
LIBS:opto
LIBS:atmel
LIBS:contrib
LIBS:valves
LIBS:stm32
LIBS:7seg
LIBS:ec11
LIBS:radio
LIBS:fet
LIBS:project-cache
EELAYER 25 0
EELAYER END
$Descr A4 11693 8268
encoding utf-8
Sheet 1 1
Title "Universal Environment Control"
Date "Пт 13 фев 2015"
Rev "1"
Comp "Illumium.Org"
Comment1 ""
Comment2 "K. <kayo@illumium.org>"
Comment3 ""
Comment4 ""
$EndDescr
$Comp
L STM32F100C D1
U 1 1 54DB77D1
P 3700 2200
F 0 "D1" H 3700 3750 60  0000 C CNN
F 1 "STM32F100C" H 3700 1400 60  0000 C CNN
F 2 "Housings_QFP:LQFP-48_7x7mm_Pitch0.5mm" H 3700 1000 60  0001 C CNN
F 3 "" H 4150 2150 60  0000 C CNN
	1    3700 2200
	1    0    0    -1  
$EndComp
Text Label 1000 2100 2    60   ~ 0
SWDIO
Text Label 1000 2200 2    60   ~ 0
SWDCLK
$Comp
L C C15
U 1 1 54DB7A57
P 10100 4000
F 0 "C15" H 10150 4100 50  0000 L CNN
F 1 "100n" H 10150 3900 50  0000 L CNN
F 2 "Capacitors_SMD:C_0603" H 10138 3850 30  0001 C CNN
F 3 "" H 10100 4000 60  0000 C CNN
	1    10100 4000
	-1   0    0    -1  
$EndComp
$Comp
L GND #PWR01
U 1 1 54DB7CB4
P 6400 3700
F 0 "#PWR01" H 6400 3450 60  0001 C CNN
F 1 "GND" H 6400 3550 60  0000 C CNN
F 2 "" H 6400 3700 60  0000 C CNN
F 3 "" H 6400 3700 60  0000 C CNN
	1    6400 3700
	1    0    0    -1  
$EndComp
$Comp
L +3V3 #PWR02
U 1 1 54DB7D52
P 6600 2800
F 0 "#PWR02" H 6600 2650 60  0001 C CNN
F 1 "+3V3" H 6600 2940 60  0000 C CNN
F 2 "" H 6600 2800 60  0000 C CNN
F 3 "" H 6600 2800 60  0000 C CNN
	1    6600 2800
	1    0    0    -1  
$EndComp
$Comp
L C C18
U 1 1 54DB7E0B
P 10400 4000
F 0 "C18" H 10450 4100 50  0000 L CNN
F 1 "100n" H 10450 3900 50  0000 L CNN
F 2 "Capacitors_SMD:C_0603" H 10438 3850 30  0001 C CNN
F 3 "" H 10400 4000 60  0000 C CNN
	1    10400 4000
	-1   0    0    -1  
$EndComp
$Comp
L C C19
U 1 1 54DB7E38
P 10700 4000
F 0 "C19" H 10750 4100 50  0000 L CNN
F 1 "100n" H 10750 3900 50  0000 L CNN
F 2 "Capacitors_SMD:C_0603" H 10738 3850 30  0001 C CNN
F 3 "" H 10700 4000 60  0000 C CNN
	1    10700 4000
	-1   0    0    -1  
$EndComp
$Comp
L C C20
U 1 1 54DB7E6A
P 11000 4000
F 0 "C20" H 11050 4100 50  0000 L CNN
F 1 "100n" H 11050 3900 50  0000 L CNN
F 2 "Capacitors_SMD:C_0603" H 11038 3850 30  0001 C CNN
F 3 "" H 11000 4000 60  0000 C CNN
	1    11000 4000
	-1   0    0    -1  
$EndComp
$Comp
L C C7
U 1 1 54DB664D
P 8400 2600
F 0 "C7" H 8450 2700 50  0000 L CNN
F 1 "100n" H 8450 2500 50  0000 L CNN
F 2 "Capacitors_SMD:C_0603" H 8438 2450 30  0001 C CNN
F 3 "" H 8400 2600 60  0000 C CNN
	1    8400 2600
	-1   0    0    -1  
$EndComp
$Comp
L GND #PWR03
U 1 1 54DB69D7
P 1000 2700
F 0 "#PWR03" H 1000 2450 60  0001 C CNN
F 1 "GND" H 1000 2550 60  0000 C CNN
F 2 "" H 1000 2700 60  0000 C CNN
F 3 "" H 1000 2700 60  0000 C CNN
	1    1000 2700
	0    1    1    0   
$EndComp
$Comp
L GND #PWR04
U 1 1 54DB6AE1
P 8400 2900
F 0 "#PWR04" H 8400 2650 60  0001 C CNN
F 1 "GND" H 8400 2750 60  0000 C CNN
F 2 "" H 8400 2900 60  0000 C CNN
F 3 "" H 8400 2900 60  0000 C CNN
	1    8400 2900
	1    0    0    -1  
$EndComp
$Comp
L LD1117S33CTR U5
U 1 1 54DB7E58
P 9300 3750
F 0 "U5" H 9300 4000 40  0000 C CNN
F 1 "AD1117-3V3" H 9300 3950 40  0000 C CNN
F 2 "SMD_Packages:SOT-223" H 9300 3850 40  0001 C CNN
F 3 "" H 9300 3750 60  0000 C CNN
	1    9300 3750
	1    0    0    -1  
$EndComp
$Comp
L CP2 C12
U 1 1 54DB81A7
P 9800 4000
F 0 "C12" H 9850 4100 50  0000 L CNN
F 1 "100u 6.3V" H 9850 3900 50  0000 L CNN
F 2 "Capacitors_SMD:c_elec_6.3x4.5" H 9838 3850 30  0001 C CNN
F 3 "" H 9800 4000 60  0000 C CNN
	1    9800 4000
	-1   0    0    -1  
$EndComp
$Comp
L +3V3 #PWR05
U 1 1 54DB851C
P 9800 3600
F 0 "#PWR05" H 9800 3450 60  0001 C CNN
F 1 "+3V3" H 9800 3740 60  0000 C CNN
F 2 "" H 9800 3600 60  0000 C CNN
F 3 "" H 9800 3600 60  0000 C CNN
	1    9800 3600
	1    0    0    -1  
$EndComp
$Comp
L +5V #PWR06
U 1 1 54DB8729
P 8800 3600
F 0 "#PWR06" H 8800 3450 60  0001 C CNN
F 1 "+5V" H 8800 3740 60  0000 C CNN
F 2 "" H 8800 3600 60  0000 C CNN
F 3 "" H 8800 3600 60  0000 C CNN
	1    8800 3600
	1    0    0    -1  
$EndComp
$Comp
L CONN_01X02 P7
U 1 1 54DC2E28
P 7400 2000
F 0 "P7" H 7400 2150 50  0000 C CNN
F 1 "5V_PWR" V 7500 2000 50  0000 C CNN
F 2 "Pin_Headers:Pin_Header_Straight_1x02" H 7400 2000 60  0001 C CNN
F 3 "" H 7400 2000 60  0000 C CNN
	1    7400 2000
	1    0    0    1   
$EndComp
Text Label 8400 900  2    60   ~ 0
SEG_A
Text Label 8400 1000 2    60   ~ 0
SEG_F
Text Label 8400 1100 2    60   ~ 0
SEG_B
Text Label 8400 1200 2    60   ~ 0
SEG_G
Text Label 8400 1500 2    60   ~ 0
SEG_C
Text Label 8400 1600 2    60   ~ 0
SEG_P
Text Label 8400 1700 2    60   ~ 0
SEG_D
Text Label 8400 1800 2    60   ~ 0
SEG_E
$Comp
L R_PACK4 RP1
U 1 1 54DD3297
P 8700 1250
F 0 "RP1" H 8700 1700 50  0000 C CNN
F 1 "150R" H 8700 1200 50  0000 C CNN
F 2 "Resistors_SMD:R_Cat16-4" H 8700 1250 60  0001 C CNN
F 3 "" H 8700 1250 60  0000 C CNN
	1    8700 1250
	-1   0    0    -1  
$EndComp
$Comp
L R_PACK4 RP2
U 1 1 54DD3318
P 8700 1850
F 0 "RP2" H 8700 2300 50  0000 C CNN
F 1 "150R" H 8700 1800 50  0000 C CNN
F 2 "Resistors_SMD:R_Cat16-4" H 8700 1850 60  0001 C CNN
F 3 "" H 8700 1850 60  0000 C CNN
	1    8700 1850
	-1   0    0    -1  
$EndComp
$Comp
L CONN_01X04 P9
U 1 1 54DD43A7
P 7700 1150
F 0 "P9" H 7700 1400 50  0000 C CNN
F 1 "SWD" V 7800 1150 50  0000 C CNN
F 2 "Pin_Headers:Pin_Header_Straight_1x04" H 7700 1150 60  0001 C CNN
F 3 "" H 7700 1150 60  0000 C CNN
	1    7700 1150
	1    0    0    1   
$EndComp
$Comp
L GND #PWR07
U 1 1 54DD48E7
P 7400 1400
F 0 "#PWR07" H 7400 1150 60  0001 C CNN
F 1 "GND" H 7400 1250 60  0000 C CNN
F 2 "" H 7400 1400 60  0000 C CNN
F 3 "" H 7400 1400 60  0000 C CNN
	1    7400 1400
	1    0    0    -1  
$EndComp
$Comp
L +3V3 #PWR08
U 1 1 54DD4A66
P 7400 900
F 0 "#PWR08" H 7400 750 60  0001 C CNN
F 1 "+3V3" H 7400 1040 60  0000 C CNN
F 2 "" H 7400 900 60  0000 C CNN
F 3 "" H 7400 900 60  0000 C CNN
	1    7400 900 
	1    0    0    -1  
$EndComp
Text Label 7300 1300 2    60   ~ 0
SWDIO
Text Label 7300 1000 2    60   ~ 0
SWDCLK
$Comp
L BC817-40 Q4
U 1 1 54DD81CE
P 9500 2600
F 0 "Q4" H 9500 2451 40  0000 R CNN
F 1 "3904" H 9500 2750 40  0000 R CNN
F 2 "Housings_SOT-23_SOT-143_TSOT-6:SOT23" H 9300 2702 29  0001 C CNN
F 3 "" H 9500 2600 60  0000 C CNN
	1    9500 2600
	-1   0    0    -1  
$EndComp
$Comp
L R R19
U 1 1 54DD81D4
P 9800 2950
F 0 "R19" V 9880 2950 50  0000 C CNN
F 1 "1K" V 9807 2951 50  0000 C CNN
F 2 "Resistors_SMD:R_0603" V 9730 2950 30  0001 C CNN
F 3 "" H 9800 2950 30  0000 C CNN
	1    9800 2950
	-1   0    0    1   
$EndComp
$Comp
L GND #PWR09
U 1 1 54DD81DA
P 9400 2900
F 0 "#PWR09" H 9400 2650 60  0001 C CNN
F 1 "GND" H 9400 2750 60  0000 C CNN
F 2 "" H 9400 2900 60  0000 C CNN
F 3 "" H 9400 2900 60  0000 C CNN
	1    9400 2900
	-1   0    0    -1  
$EndComp
Text Label 11000 3300 2    60   ~ 0
SEG_1
Text Label 10400 3300 2    60   ~ 0
SEG_2
Text Label 8400 2300 0    60   ~ 0
RESET
$Comp
L BC817-40 Q5
U 1 1 54DE1DEB
P 10100 2600
F 0 "Q5" H 10100 2451 40  0000 R CNN
F 1 "3904" H 10100 2750 40  0000 R CNN
F 2 "Housings_SOT-23_SOT-143_TSOT-6:SOT23" H 9900 2702 29  0001 C CNN
F 3 "" H 10100 2600 60  0000 C CNN
	1    10100 2600
	-1   0    0    -1  
$EndComp
$Comp
L BC817-40 Q6
U 1 1 54DE1E59
P 10700 2600
F 0 "Q6" H 10700 2451 40  0000 R CNN
F 1 "3904" H 10700 2750 40  0000 R CNN
F 2 "Housings_SOT-23_SOT-143_TSOT-6:SOT23" H 10500 2702 29  0001 C CNN
F 3 "" H 10700 2600 60  0000 C CNN
	1    10700 2600
	-1   0    0    -1  
$EndComp
$Comp
L R R23
U 1 1 54DE1EFA
P 11000 2950
F 0 "R23" V 11080 2950 50  0000 C CNN
F 1 "1K" V 11007 2951 50  0000 C CNN
F 2 "Resistors_SMD:R_0603" V 10930 2950 30  0001 C CNN
F 3 "" H 11000 2950 30  0000 C CNN
	1    11000 2950
	-1   0    0    -1  
$EndComp
$Comp
L R R22
U 1 1 54DE3171
P 10400 2950
F 0 "R22" V 10480 2950 50  0000 C CNN
F 1 "1K" V 10407 2951 50  0000 C CNN
F 2 "Resistors_SMD:R_0603" V 10330 2950 30  0001 C CNN
F 3 "" H 10400 2950 30  0000 C CNN
	1    10400 2950
	-1   0    0    -1  
$EndComp
$Comp
L GND #PWR010
U 1 1 54DE36FF
P 10000 2900
F 0 "#PWR010" H 10000 2650 60  0001 C CNN
F 1 "GND" H 10000 2750 60  0000 C CNN
F 2 "" H 10000 2900 60  0000 C CNN
F 3 "" H 10000 2900 60  0000 C CNN
	1    10000 2900
	-1   0    0    -1  
$EndComp
$Comp
L GND #PWR011
U 1 1 54DE372F
P 10600 2900
F 0 "#PWR011" H 10600 2650 60  0001 C CNN
F 1 "GND" H 10600 2750 60  0000 C CNN
F 2 "" H 10600 2900 60  0000 C CNN
F 3 "" H 10600 2900 60  0000 C CNN
	1    10600 2900
	-1   0    0    -1  
$EndComp
Text Label 9800 3300 2    60   ~ 0
SEG_3
Text Label 1000 2000 2    60   ~ 0
SEG_A
Text Label 6400 1100 0    60   ~ 0
SEG_B
Text Label 6400 1300 0    60   ~ 0
SEG_C
Text Label 6400 1500 0    60   ~ 0
SEG_D
Text Label 6400 1600 0    60   ~ 0
SEG_E
Text Label 1000 2300 2    60   ~ 0
SEG_F
Text Label 6400 1200 0    60   ~ 0
SEG_G
Text Label 6400 1400 0    60   ~ 0
SEG_P
$Comp
L R R21
U 1 1 54DF611A
P 10250 5600
F 0 "R21" V 10330 5600 50  0000 C CNN
F 1 "4K7" V 10257 5601 50  0000 C CNN
F 2 "Resistors_SMD:R_0603" V 10180 5600 30  0001 C CNN
F 3 "" H 10250 5600 30  0000 C CNN
	1    10250 5600
	0    1    -1   0   
$EndComp
Text Label 1000 1000 2    60   ~ 0
T1_SENSE
Text Label 1000 1100 2    60   ~ 0
T2_SENSE
Text Label 1000 3000 2    60   ~ 0
SEG_1
Text Label 1000 2900 2    60   ~ 0
SEG_2
Text Label 1000 3300 2    60   ~ 0
SEG_3
Text Label 6400 1800 0    60   ~ 0
ENC_A
Text Label 6400 1900 0    60   ~ 0
ENC_B
Text Label 8000 3400 0    60   ~ 0
BTN
Text Label 6400 2000 0    60   ~ 0
BTN
$Comp
L CP2 C17
U 1 1 54DFE062
P 10300 6100
F 0 "C17" H 10350 6200 50  0000 L CNN
F 1 "10u" H 10350 6000 50  0000 L CNN
F 2 "Capacitors_SMD:C_0805" H 10338 5950 30  0001 C CNN
F 3 "" H 10300 6100 60  0000 C CNN
	1    10300 6100
	1    0    0    -1  
$EndComp
$Comp
L C C14
U 1 1 54DFEB98
P 10000 6100
F 0 "C14" H 10050 6200 50  0000 L CNN
F 1 "100n" H 10050 6000 50  0000 L CNN
F 2 "Capacitors_SMD:C_0603" H 10038 5950 30  0001 C CNN
F 3 "" H 10000 6100 60  0000 C CNN
	1    10000 6100
	1    0    0    -1  
$EndComp
$Comp
L +3V3 #PWR012
U 1 1 54DFEFF7
P 9900 5600
F 0 "#PWR012" H 9900 5450 60  0001 C CNN
F 1 "+3V3" V 9900 5850 60  0000 C CNN
F 2 "" H 9900 5600 60  0000 C CNN
F 3 "" H 9900 5600 60  0000 C CNN
	1    9900 5600
	0    -1   -1   0   
$EndComp
$Comp
L GND #PWR013
U 1 1 54DFF1B5
P 10800 6300
F 0 "#PWR013" H 10800 6050 60  0001 C CNN
F 1 "GND" H 10800 6150 60  0000 C CNN
F 2 "" H 10800 6300 60  0000 C CNN
F 3 "" H 10800 6300 60  0000 C CNN
	1    10800 6300
	1    0    0    -1  
$EndComp
Text Label 9800 5800 3    60   ~ 0
T2_SENSE
$Comp
L R R20
U 1 1 54E01B8B
P 10250 4600
F 0 "R20" V 10330 4600 50  0000 C CNN
F 1 "4K7" V 10257 4601 50  0000 C CNN
F 2 "Resistors_SMD:R_0603" V 10180 4600 30  0001 C CNN
F 3 "" H 10250 4600 30  0000 C CNN
	1    10250 4600
	0    1    -1   0   
$EndComp
$Comp
L CP2 C16
U 1 1 54E01B99
P 10300 5100
F 0 "C16" H 10350 5200 50  0000 L CNN
F 1 "10u" H 10350 5000 50  0000 L CNN
F 2 "Capacitors_SMD:C_0805" H 10338 4950 30  0001 C CNN
F 3 "" H 10300 5100 60  0000 C CNN
	1    10300 5100
	1    0    0    -1  
$EndComp
$Comp
L C C13
U 1 1 54E01BA4
P 10000 5100
F 0 "C13" H 10050 5200 50  0000 L CNN
F 1 "100n" H 10050 5000 50  0000 L CNN
F 2 "Capacitors_SMD:C_0603" H 10038 4950 30  0001 C CNN
F 3 "" H 10000 5100 60  0000 C CNN
	1    10000 5100
	1    0    0    -1  
$EndComp
$Comp
L +3V3 #PWR014
U 1 1 54E01BAF
P 9900 4600
F 0 "#PWR014" H 9900 4450 60  0001 C CNN
F 1 "+3V3" V 9900 4850 60  0000 C CNN
F 2 "" H 9900 4600 60  0000 C CNN
F 3 "" H 9900 4600 60  0000 C CNN
	1    9900 4600
	0    -1   -1   0   
$EndComp
$Comp
L GND #PWR015
U 1 1 54E01BB5
P 10800 5300
F 0 "#PWR015" H 10800 5050 60  0001 C CNN
F 1 "GND" H 10800 5150 60  0000 C CNN
F 2 "" H 10800 5300 60  0000 C CNN
F 3 "" H 10800 5300 60  0000 C CNN
	1    10800 5300
	1    0    0    -1  
$EndComp
Text Label 9800 4800 3    60   ~ 0
T1_SENSE
$Comp
L EC11E E1
U 1 1 54DE0CF5
P 7500 3500
F 0 "E1" H 7700 3800 60  0000 C CNN
F 1 "TUNE" H 7500 3250 60  0000 C CNN
F 2 "hardware:EC11E" H 7550 3500 60  0001 C CNN
F 3 "" H 7550 3500 60  0000 C CNN
	1    7500 3500
	1    0    0    -1  
$EndComp
Text Label 6900 3400 2    60   ~ 0
ENC_A
Text Label 6900 3600 2    60   ~ 0
ENC_B
Text Label 1000 2500 2    60   ~ 0
RESET
Text Notes 11750 1200 0    60   ~ 0
150R, 1.896V, 7.09mA\n100R, 1.934V, 11.58mA\n050R, 1.974V, 17.23mA
$Comp
L GND #PWR016
U 1 1 54E27F4E
P 7100 2150
F 0 "#PWR016" H 7100 1900 60  0001 C CNN
F 1 "GND" H 7100 2000 60  0000 C CNN
F 2 "" H 7100 2150 60  0000 C CNN
F 3 "" H 7100 2150 60  0000 C CNN
	1    7100 2150
	1    0    0    -1  
$EndComp
$Comp
L +5V #PWR017
U 1 1 54E27F83
P 7100 1850
F 0 "#PWR017" H 7100 1700 60  0001 C CNN
F 1 "+5V" H 7100 1990 60  0000 C CNN
F 2 "" H 7100 1850 60  0000 C CNN
F 3 "" H 7100 1850 60  0000 C CNN
	1    7100 1850
	1    0    0    -1  
$EndComp
$Comp
L CONN_01X02 P8
U 1 1 54E291DF
P 7400 2750
F 0 "P8" H 7400 2900 50  0000 C CNN
F 1 "12V_PWR" V 7500 2750 50  0000 C CNN
F 2 "Pin_Headers:Pin_Header_Straight_1x02" H 7400 2750 60  0001 C CNN
F 3 "" H 7400 2750 60  0000 C CNN
	1    7400 2750
	1    0    0    1   
$EndComp
$Comp
L +12V #PWR018
U 1 1 54E295DE
P 7100 2600
F 0 "#PWR018" H 7100 2450 60  0001 C CNN
F 1 "+12V" H 7100 2740 60  0000 C CNN
F 2 "" H 7100 2600 60  0000 C CNN
F 3 "" H 7100 2600 60  0000 C CNN
	1    7100 2600
	1    0    0    -1  
$EndComp
$Comp
L GND #PWR019
U 1 1 54E2961A
P 7100 2900
F 0 "#PWR019" H 7100 2650 60  0001 C CNN
F 1 "GND" H 7100 2750 60  0000 C CNN
F 2 "" H 7100 2900 60  0000 C CNN
F 3 "" H 7100 2900 60  0000 C CNN
	1    7100 2900
	1    0    0    -1  
$EndComp
$Comp
L 7SEG_4DIGIT_CLOCK S1
U 1 1 54EB0722
P 10100 1250
F 0 "S1" H 10100 1900 60  0000 C CNN
F 1 "7SEG_4DIGIT_CLOCK" H 10100 600 60  0000 C CNN
F 2 "hardware:7SEG_4D_C56" H 10100 1250 60  0001 C CNN
F 3 "" H 10100 1250 60  0000 C CNN
	1    10100 1250
	1    0    0    -1  
$EndComp
$Comp
L BC817-40 Q3
U 1 1 54EB1094
P 8900 2600
F 0 "Q3" H 8900 2451 40  0000 R CNN
F 1 "3904" H 8900 2750 40  0000 R CNN
F 2 "Housings_SOT-23_SOT-143_TSOT-6:SOT23" H 8700 2702 29  0001 C CNN
F 3 "" H 8900 2600 60  0000 C CNN
	1    8900 2600
	-1   0    0    -1  
$EndComp
$Comp
L R R18
U 1 1 54EB109A
P 9200 2950
F 0 "R18" V 9280 2950 50  0000 C CNN
F 1 "1K" V 9207 2951 50  0000 C CNN
F 2 "Resistors_SMD:R_0603" V 9130 2950 30  0001 C CNN
F 3 "" H 9200 2950 30  0000 C CNN
	1    9200 2950
	-1   0    0    1   
$EndComp
$Comp
L GND #PWR020
U 1 1 54EB10A0
P 8800 2900
F 0 "#PWR020" H 8800 2650 60  0001 C CNN
F 1 "GND" H 8800 2750 60  0000 C CNN
F 2 "" H 8800 2900 60  0000 C CNN
F 3 "" H 8800 2900 60  0000 C CNN
	1    8800 2900
	-1   0    0    -1  
$EndComp
Text Label 9200 3300 2    60   ~ 0
SEG_4
$Comp
L XL4432-SMT D5
U 1 1 54EBA671
P 7100 4700
F 0 "D5" H 7100 5450 60  0000 C CNN
F 1 "XL4432-SMT" V 7200 4650 60  0000 C CNN
F 2 "hardware:XL4432-SMT" H 7100 4700 60  0001 C CNN
F 3 "" H 7100 4700 60  0000 C CNN
	1    7100 4700
	1    0    0    -1  
$EndComp
NoConn ~ 7900 4100
NoConn ~ 7900 4200
$Comp
L C C6
U 1 1 54EBBC48
P 7900 4800
F 0 "C6" H 7950 4900 50  0000 L CNN
F 1 "100n" H 7950 4700 50  0000 L CNN
F 2 "Capacitors_SMD:C_0603" H 7938 4650 30  0001 C CNN
F 3 "" H 7900 4800 60  0000 C CNN
	1    7900 4800
	-1   0    0    -1  
$EndComp
$Comp
L +3V3 #PWR021
U 1 1 54EBC122
P 7900 4500
F 0 "#PWR021" H 7900 4350 60  0001 C CNN
F 1 "+3V3" H 7900 4640 60  0000 C CNN
F 2 "" H 7900 4500 60  0000 C CNN
F 3 "" H 7900 4500 60  0000 C CNN
	1    7900 4500
	1    0    0    -1  
$EndComp
$Comp
L GND #PWR022
U 1 1 54EBC14E
P 7900 5100
F 0 "#PWR022" H 7900 4850 60  0001 C CNN
F 1 "GND" H 7900 4950 60  0000 C CNN
F 2 "" H 7900 5100 60  0000 C CNN
F 3 "" H 7900 5100 60  0000 C CNN
	1    7900 5100
	1    0    0    -1  
$EndComp
Text Label 6200 5100 2    60   ~ 0
~RAD_ON
Text Label 6200 4600 2    60   ~ 0
RAD_DO
Text Label 6200 4700 2    60   ~ 0
RAD_DI
Text Label 6200 4800 2    60   ~ 0
RAD_CK
Text Label 6200 4900 2    60   ~ 0
~RAD_CS
Text Label 6200 5000 2    60   ~ 0
~RAD_EV
Text Label 6400 1000 0    60   ~ 0
~RAD_ON
Text Label 1000 1400 2    60   ~ 0
RAD_DO
Text Label 1000 1500 2    60   ~ 0
RAD_DI
Text Label 1000 1300 2    60   ~ 0
RAD_CK
Text Label 1000 1200 2    60   ~ 0
~RAD_CS
Text Label 6400 900  0    60   ~ 0
~RAD_EV
$Comp
L TRIAC U1
U 1 1 54EC1C58
P 2900 4600
F 0 "U1" H 2650 4950 70  0000 C CNN
F 1 "BTA24" H 3100 4950 60  0000 C CNN
F 2 "hardware:TO220_TRIAC" H 2900 4600 60  0001 C CNN
F 3 "" H 2900 4600 60  0000 C CNN
	1    2900 4600
	1    0    0    -1  
$EndComp
$Comp
L R R1
U 1 1 54EC1C66
P 1050 4100
F 0 "R1" V 1130 4100 40  0000 C CNN
F 1 "150" V 1057 4101 40  0000 C CNN
F 2 "Resistors_SMD:R_0603" V 980 4100 30  0001 C CNN
F 3 "" H 1050 4100 30  0000 C CNN
	1    1050 4100
	0    -1   -1   0   
$EndComp
Text Label 1000 4300 2    60   ~ 0
~L_G1
$Comp
L R R4
U 1 1 54EC1C74
P 2550 4100
F 0 "R4" V 2630 4100 40  0000 C CNN
F 1 "360" V 2557 4101 40  0000 C CNN
F 2 "Resistors_SMD:R_0805" V 2480 4100 30  0001 C CNN
F 3 "" H 2550 4100 30  0000 C CNN
	1    2550 4100
	0    -1   -1   0   
$EndComp
$Comp
L DIODE D3
U 1 1 54EC1C98
P 5300 4200
F 0 "D3" H 5300 4300 40  0000 C CNN
F 1 "1N4148" H 5200 4100 40  0000 C CNN
F 2 "Diodes_SMD:Diode-MELF_Standard" H 5300 4200 60  0001 C CNN
F 3 "" H 5300 4200 60  0000 C CNN
	1    5300 4200
	-1   0    0    -1  
$EndComp
$Comp
L R R14
U 1 1 54EC1CB4
P 5600 4550
F 0 "R14" V 5680 4550 40  0000 C CNN
F 1 "120K" V 5607 4551 40  0000 C CNN
F 2 "Resistors_SMD:R_0805" V 5530 4550 30  0001 C CNN
F 3 "" H 5600 4550 30  0000 C CNN
	1    5600 4550
	-1   0    0    1   
$EndComp
$Comp
L R R12
U 1 1 54EC1CC2
P 4750 5800
F 0 "R12" V 4830 5800 40  0000 C CNN
F 1 "120K" V 4757 5801 40  0000 C CNN
F 2 "Resistors_SMD:R_0805" V 4680 5800 30  0001 C CNN
F 3 "" H 4750 5800 30  0000 C CNN
	1    4750 5800
	0    -1   -1   0   
$EndComp
$Comp
L CONN_01X02 P1
U 1 1 54EC1CC9
P 3500 4900
F 0 "P1" H 3500 5050 50  0000 C CNN
F 1 "LOAD_1" V 3600 4900 50  0000 C CNN
F 2 "hardware:BIG_PIN2" H 3500 4900 60  0001 C CNN
F 3 "" H 3500 4900 60  0000 C CNN
	1    3500 4900
	1    0    0    -1  
$EndComp
$Comp
L CONN_01X02 P4
U 1 1 54EC1CD0
P 4700 6250
F 0 "P4" H 4700 6400 50  0000 C CNN
F 1 "HW_PWR" V 4800 6250 50  0000 C CNN
F 2 "hardware:BIG_PIN2" H 4700 6250 60  0001 C CNN
F 3 "" H 4700 6250 60  0000 C CNN
	1    4700 6250
	1    0    0    -1  
$EndComp
Text Label 1700 7100 0    60   ~ 0
~ZERO_DT
$Comp
L TRIAC U2
U 1 1 54ED3EC7
P 2900 5700
F 0 "U2" H 2650 6050 70  0000 C CNN
F 1 "BTA24" H 3100 6050 60  0000 C CNN
F 2 "hardware:TO220_TRIAC" H 2900 5700 60  0001 C CNN
F 3 "" H 2900 5700 60  0000 C CNN
	1    2900 5700
	1    0    0    -1  
$EndComp
$Comp
L R R2
U 1 1 54ED3ED3
P 1050 5200
F 0 "R2" V 1130 5200 40  0000 C CNN
F 1 "150" V 1057 5201 40  0000 C CNN
F 2 "Resistors_SMD:R_0603" V 980 5200 30  0001 C CNN
F 3 "" H 1050 5200 30  0000 C CNN
	1    1050 5200
	0    1    -1   0   
$EndComp
Text Label 1000 5400 2    60   ~ 0
~L_G2
$Comp
L R R6
U 1 1 54ED3EDA
P 2550 5200
F 0 "R6" V 2630 5200 40  0000 C CNN
F 1 "360" V 2557 5201 40  0000 C CNN
F 2 "Resistors_SMD:R_0805" V 2480 5200 30  0001 C CNN
F 3 "" H 2550 5200 30  0000 C CNN
	1    2550 5200
	0    -1   -1   0   
$EndComp
$Comp
L TRIAC U3
U 1 1 54ED5254
P 2900 6800
F 0 "U3" H 2650 7150 70  0000 C CNN
F 1 "BTA24" H 3100 7150 60  0000 C CNN
F 2 "hardware:TO220_TRIAC" H 2900 6800 60  0001 C CNN
F 3 "" H 2900 6800 60  0000 C CNN
	1    2900 6800
	1    0    0    -1  
$EndComp
$Comp
L R R3
U 1 1 54ED5260
P 1050 6300
F 0 "R3" V 1130 6300 40  0000 C CNN
F 1 "150" V 1057 6301 40  0000 C CNN
F 2 "Resistors_SMD:R_0603" V 980 6300 30  0001 C CNN
F 3 "" H 1050 6300 30  0000 C CNN
	1    1050 6300
	0    -1   -1   0   
$EndComp
$Comp
L R R8
U 1 1 54ED5267
P 2550 6300
F 0 "R8" V 2630 6300 40  0000 C CNN
F 1 "360" V 2557 6301 40  0000 C CNN
F 2 "Resistors_SMD:R_0805" V 2480 6300 30  0001 C CNN
F 3 "" H 2550 6300 30  0000 C CNN
	1    2550 6300
	0    -1   -1   0   
$EndComp
$Comp
L CONN_01X02 P2
U 1 1 54ED643E
P 3500 6000
F 0 "P2" H 3500 6150 50  0000 C CNN
F 1 "LOAD_2" V 3600 6000 50  0000 C CNN
F 2 "hardware:BIG_PIN2" H 3500 6000 60  0001 C CNN
F 3 "" H 3500 6000 60  0000 C CNN
	1    3500 6000
	1    0    0    -1  
$EndComp
$Comp
L CONN_01X02 P3
U 1 1 54ED6AFF
P 3500 7100
F 0 "P3" H 3500 7250 50  0000 C CNN
F 1 "LOAD_3" V 3600 7100 50  0000 C CNN
F 2 "hardware:BIG_PIN2" H 3500 7100 60  0001 C CNN
F 3 "" H 3500 7100 60  0000 C CNN
	1    3500 7100
	1    0    0    -1  
$EndComp
Text Label 5100 5800 0    60   ~ 0
HV_1
Text Label 5600 4900 3    60   ~ 0
HV_2
Text Label 4400 6200 2    60   ~ 0
HV_1
Text Label 4400 6300 2    60   ~ 0
HV_2
Text Label 3200 4850 2    60   ~ 0
HV_2
Text Label 3000 4100 0    60   ~ 0
HV_1
Text Label 3000 5200 0    60   ~ 0
HV_1
Text Label 3000 6300 0    60   ~ 0
HV_1
Text Label 3200 5950 2    60   ~ 0
HV_2
Text Label 3200 7050 2    60   ~ 0
HV_2
$Comp
L +3V3 #PWR023
U 1 1 54EE387E
P 6100 4500
F 0 "#PWR023" H 6100 4350 60  0001 C CNN
F 1 "+3V3" V 6200 4500 60  0000 C CNN
F 2 "" H 6100 4500 60  0000 C CNN
F 3 "" H 6100 4500 60  0000 C CNN
	1    6100 4500
	0    -1   -1   0   
$EndComp
$Comp
L GND #PWR024
U 1 1 54EE3B0B
P 6100 4300
F 0 "#PWR024" H 6100 4050 60  0001 C CNN
F 1 "GND" V 6000 4300 60  0000 C CNN
F 2 "" H 6100 4300 60  0000 C CNN
F 3 "" H 6100 4300 60  0000 C CNN
	1    6100 4300
	0    1    1    0   
$EndComp
$Comp
L GND #PWR025
U 1 1 54EE4800
P 6900 3800
F 0 "#PWR025" H 6900 3550 60  0001 C CNN
F 1 "GND" V 6800 3800 60  0000 C CNN
F 2 "" H 6900 3800 60  0000 C CNN
F 3 "" H 6900 3800 60  0000 C CNN
	1    6900 3800
	0    1    1    0   
$EndComp
$Comp
L GND #PWR026
U 1 1 54EE83E0
P 8500 4200
F 0 "#PWR026" H 8500 3950 60  0001 C CNN
F 1 "GND" H 8500 4050 60  0000 C CNN
F 2 "" H 8500 4200 60  0000 C CNN
F 3 "" H 8500 4200 60  0000 C CNN
	1    8500 4200
	1    0    0    -1  
$EndComp
$Comp
L R R17
U 1 1 54EEA877
P 8750 5600
F 0 "R17" V 8830 5600 50  0000 C CNN
F 1 "4K7" V 8757 5601 50  0000 C CNN
F 2 "Resistors_SMD:R_0603" V 8680 5600 30  0001 C CNN
F 3 "" H 8750 5600 30  0000 C CNN
	1    8750 5600
	0    1    -1   0   
$EndComp
$Comp
L CP2 C11
U 1 1 54EEA87D
P 8800 6100
F 0 "C11" H 8850 6200 50  0000 L CNN
F 1 "10u" H 8850 6000 50  0000 L CNN
F 2 "Capacitors_SMD:C_0805" H 8838 5950 30  0001 C CNN
F 3 "" H 8800 6100 60  0000 C CNN
	1    8800 6100
	1    0    0    -1  
$EndComp
$Comp
L C C9
U 1 1 54EEA883
P 8500 6100
F 0 "C9" H 8550 6200 50  0000 L CNN
F 1 "100n" H 8550 6000 50  0000 L CNN
F 2 "Capacitors_SMD:C_0603" H 8538 5950 30  0001 C CNN
F 3 "" H 8500 6100 60  0000 C CNN
	1    8500 6100
	1    0    0    -1  
$EndComp
$Comp
L +3V3 #PWR027
U 1 1 54EEA889
P 8400 5600
F 0 "#PWR027" H 8400 5450 60  0001 C CNN
F 1 "+3V3" V 8400 5850 60  0000 C CNN
F 2 "" H 8400 5600 60  0000 C CNN
F 3 "" H 8400 5600 60  0000 C CNN
	1    8400 5600
	0    -1   -1   0   
$EndComp
$Comp
L GND #PWR028
U 1 1 54EEA88F
P 9300 6300
F 0 "#PWR028" H 9300 6050 60  0001 C CNN
F 1 "GND" H 9300 6150 60  0000 C CNN
F 2 "" H 9300 6300 60  0000 C CNN
F 3 "" H 9300 6300 60  0000 C CNN
	1    9300 6300
	1    0    0    -1  
$EndComp
Text Label 8300 5800 3    60   ~ 0
T4_SENSE
$Comp
L CONN_01X02 P5
U 1 1 54EEB4E0
P 5000 7050
F 0 "P5" H 5000 7200 50  0000 C CNN
F 1 "NTC_100K" V 5100 7050 50  0000 C CNN
F 2 "Pin_Headers:Pin_Header_Straight_1x02" H 5000 7050 60  0001 C CNN
F 3 "" H 5000 7050 60  0000 C CNN
	1    5000 7050
	1    0    0    1   
$EndComp
$Comp
L R R10
U 1 1 54EEB4E6
P 4350 6800
F 0 "R10" V 4430 6800 50  0000 C CNN
F 1 "4K7" V 4357 6801 50  0000 C CNN
F 2 "Resistors_SMD:R_0603" V 4280 6800 30  0001 C CNN
F 3 "" H 4350 6800 30  0000 C CNN
	1    4350 6800
	0    1    -1   0   
$EndComp
$Comp
L CP2 C2
U 1 1 54EEB4EC
P 4400 7300
F 0 "C2" H 4450 7400 50  0000 L CNN
F 1 "10u" H 4450 7200 50  0000 L CNN
F 2 "Capacitors_SMD:C_0805" H 4438 7150 30  0001 C CNN
F 3 "" H 4400 7300 60  0000 C CNN
	1    4400 7300
	1    0    0    -1  
$EndComp
$Comp
L C C1
U 1 1 54EEB4F2
P 4100 7300
F 0 "C1" H 4150 7400 50  0000 L CNN
F 1 "100n" H 4150 7200 50  0000 L CNN
F 2 "Capacitors_SMD:C_0603" H 4138 7150 30  0001 C CNN
F 3 "" H 4100 7300 60  0000 C CNN
	1    4100 7300
	1    0    0    -1  
$EndComp
$Comp
L +3V3 #PWR029
U 1 1 54EEB4F8
P 4000 6800
F 0 "#PWR029" H 4000 6650 60  0001 C CNN
F 1 "+3V3" V 4000 7050 60  0000 C CNN
F 2 "" H 4000 6800 60  0000 C CNN
F 3 "" H 4000 6800 60  0000 C CNN
	1    4000 6800
	0    -1   -1   0   
$EndComp
$Comp
L GND #PWR030
U 1 1 54EEB4FE
P 4900 7500
F 0 "#PWR030" H 4900 7250 60  0001 C CNN
F 1 "GND" H 4900 7350 60  0000 C CNN
F 2 "" H 4900 7500 60  0000 C CNN
F 3 "" H 4900 7500 60  0000 C CNN
	1    4900 7500
	1    0    0    -1  
$EndComp
Text Label 4000 7000 3    60   ~ 0
TS_SENSE
$Comp
L BC807-40 Q1
U 1 1 54ED50A5
P 4700 4400
F 0 "Q1" H 4700 4251 40  0000 R CNN
F 1 "BC807-40" H 4700 4550 40  0000 R CNN
F 2 "Housings_SOT-23_SOT-143_TSOT-6:SOT23" H 4500 4502 29  0001 C CNN
F 3 "" H 4700 4400 60  0000 C CNN
	1    4700 4400
	-1   0    0    -1  
$EndComp
$Comp
L C C3
U 1 1 54ED5478
P 4900 5400
F 0 "C3" H 4950 5500 50  0000 L CNN
F 1 "470n" V 5000 5150 50  0000 L CNN
F 2 "Capacitors_SMD:C_0805" H 4938 5250 30  0001 C CNN
F 3 "" H 4900 5400 60  0000 C CNN
	1    4900 5400
	0    -1   1    0   
$EndComp
$Comp
L R R11
U 1 1 54ED585C
P 4600 4950
F 0 "R11" V 4680 4950 50  0000 C CNN
F 1 "22" V 4607 4951 50  0000 C CNN
F 2 "Resistors_SMD:R_0603" V 4530 4950 30  0001 C CNN
F 3 "" H 4600 4950 30  0000 C CNN
	1    4600 4950
	-1   0    0    -1  
$EndComp
$Comp
L DIODE D2
U 1 1 54ED6038
P 4800 4950
F 0 "D2" H 4800 5050 40  0000 C CNN
F 1 "1N4148" H 4700 4850 40  0000 C CNN
F 2 "Diodes_SMD:Diode-MELF_Standard" H 4800 4950 60  0001 C CNN
F 3 "" H 4800 4950 60  0000 C CNN
	1    4800 4950
	0    -1   1    0   
$EndComp
$Comp
L R R13
U 1 1 54ED8EC8
P 5200 4950
F 0 "R13" V 5280 4950 40  0000 C CNN
F 1 "330K" V 5207 4951 40  0000 C CNN
F 2 "Resistors_SMD:R_0603" V 5130 4950 30  0001 C CNN
F 3 "" H 5200 4950 30  0000 C CNN
	1    5200 4950
	-1   0    0    -1  
$EndComp
$Comp
L ZENER D4
U 1 1 54EDBA57
P 5400 4950
F 0 "D4" H 5400 5050 50  0000 C CNN
F 1 "20V" H 5400 4850 50  0000 C CNN
F 2 "Diodes_SMD:Diode-MELF_Standard" H 5400 4950 60  0001 C CNN
F 3 "" H 5400 4950 60  0000 C CNN
	1    5400 4950
	0    -1   -1   0   
$EndComp
$Comp
L OPTO-TRANSISTOR4 U4
U 1 1 54EE14D1
P 4050 4950
F 0 "U4" H 4250 5200 60  0000 C CNN
F 1 "817С" H 4050 4700 60  0000 C CNN
F 2 "hardware:DIP-4__300_ELL" H 4050 4950 60  0001 C CNN
F 3 "" H 4050 4950 60  0000 C CNN
	1    4050 4950
	0    -1   1    0   
$EndComp
$Comp
L MOC3081M IC1
U 1 1 54EE4F24
P 1750 4200
F 0 "IC1" H 1540 4390 40  0000 C CNN
F 1 "MOC3081M" H 1840 4010 40  0000 C CNN
F 2 "Sockets_DIP:DIP-6__300_ELL" H 1550 4020 30  0001 C CIN
F 3 "" H 1750 4200 60  0000 C CNN
	1    1750 4200
	1    0    0    -1  
$EndComp
$Comp
L MOC3081M IC2
U 1 1 54EE5444
P 1750 5300
F 0 "IC2" H 1540 5490 40  0000 C CNN
F 1 "MOC3081M" H 1840 5110 40  0000 C CNN
F 2 "Sockets_DIP:DIP-6__300_ELL" H 1550 5120 30  0001 C CIN
F 3 "" H 1750 5300 60  0000 C CNN
	1    1750 5300
	1    0    0    -1  
$EndComp
$Comp
L MOC3081M IC3
U 1 1 54EE54CA
P 1750 6400
F 0 "IC3" H 1540 6590 40  0000 C CNN
F 1 "MOC3081M" H 1840 6210 40  0000 C CNN
F 2 "Sockets_DIP:DIP-6__300_ELL" H 1550 6220 30  0001 C CIN
F 3 "" H 1750 6400 60  0000 C CNN
	1    1750 6400
	1    0    0    -1  
$EndComp
$Comp
L CONN_01X02 P6
U 1 1 54EEDBED
P 6000 6850
F 0 "P6" H 6000 7000 50  0000 C CNN
F 1 "12V_FAN" V 6100 6850 50  0000 C CNN
F 2 "Pin_Headers:Pin_Header_Straight_1x02" H 6000 6850 60  0001 C CNN
F 3 "" H 6000 6850 60  0000 C CNN
	1    6000 6850
	1    0    0    1   
$EndComp
$Comp
L R R15
U 1 1 54EEE34F
P 5300 6850
F 0 "R15" V 5380 6850 50  0000 C CNN
F 1 "220" V 5307 6851 50  0000 C CNN
F 2 "Resistors_SMD:R_0603" V 5230 6850 30  0001 C CNN
F 3 "" H 5300 6850 30  0000 C CNN
	1    5300 6850
	-1   0    0    1   
$EndComp
$Comp
L GND #PWR031
U 1 1 54EEE449
P 5700 7500
F 0 "#PWR031" H 5700 7250 60  0001 C CNN
F 1 "GND" H 5700 7350 60  0000 C CNN
F 2 "" H 5700 7500 60  0000 C CNN
F 3 "" H 5700 7500 60  0000 C CNN
	1    5700 7500
	1    0    0    -1  
$EndComp
$Comp
L +12V #PWR032
U 1 1 54EEEC65
P 5700 6700
F 0 "#PWR032" H 5700 6550 60  0001 C CNN
F 1 "+12V" H 5700 6840 60  0000 C CNN
F 2 "" H 5700 6700 60  0000 C CNN
F 3 "" H 5700 6700 60  0000 C CNN
	1    5700 6700
	1    0    0    -1  
$EndComp
Text Label 5300 6500 0    60   ~ 0
FAN_PWM
Text Label 6400 2200 0    60   ~ 0
~LOAD_G1
Text Label 6400 2300 0    60   ~ 0
~LOAD_G2
Text Label 1000 1600 2    60   ~ 0
~LOAD_G3
Text Label 1000 1700 2    60   ~ 0
UART_TX
Text Label 1000 1800 2    60   ~ 0
UART_RX
Text Label 6400 2100 0    60   ~ 0
~ZERO_DT
Text Label 6400 800  0    60   ~ 0
TS_SENSE
Text Label 1000 3500 2    60   ~ 0
X32_I
Text Label 1000 3600 2    60   ~ 0
X32_O
Text Label 1000 800  2    60   ~ 0
T3_SENSE
$Comp
L C C4
U 1 1 54EFDFAE
P 6700 5900
F 0 "C4" H 6750 6000 50  0000 L CNN
F 1 "15p" H 6750 5800 50  0000 L CNN
F 2 "Capacitors_SMD:C_0603" H 6738 5750 30  0001 C CNN
F 3 "" H 6700 5900 60  0000 C CNN
	1    6700 5900
	-1   0    0    -1  
$EndComp
$Comp
L C C5
U 1 1 54EFE23C
P 7500 5900
F 0 "C5" H 7550 6000 50  0000 L CNN
F 1 "15p" H 7550 5800 50  0000 L CNN
F 2 "Capacitors_SMD:C_0603" H 7538 5750 30  0001 C CNN
F 3 "" H 7500 5900 60  0000 C CNN
	1    7500 5900
	-1   0    0    -1  
$EndComp
$Comp
L GND #PWR033
U 1 1 54EFEA56
P 6700 6200
F 0 "#PWR033" H 6700 5950 60  0001 C CNN
F 1 "GND" H 6700 6050 60  0000 C CNN
F 2 "" H 6700 6200 60  0000 C CNN
F 3 "" H 6700 6200 60  0000 C CNN
	1    6700 6200
	1    0    0    -1  
$EndComp
$Comp
L GND #PWR034
U 1 1 54EFEAF3
P 7500 6200
F 0 "#PWR034" H 7500 5950 60  0001 C CNN
F 1 "GND" H 7500 6050 60  0000 C CNN
F 2 "" H 7500 6200 60  0000 C CNN
F 3 "" H 7500 6200 60  0000 C CNN
	1    7500 6200
	1    0    0    -1  
$EndComp
Text Label 6700 5600 2    60   ~ 0
X32_I
Text Label 7500 5600 0    60   ~ 0
X32_O
$Comp
L BATTERY BT1
U 1 1 54F055BA
P 7900 2500
F 0 "BT1" H 7900 2700 50  0000 C CNN
F 1 "3V" H 7900 2310 50  0000 C CNN
F 2 "hardware:CR2032_BATTERY" H 7900 2500 60  0001 C CNN
F 3 "" H 7900 2500 60  0000 C CNN
	1    7900 2500
	0    -1   1    0   
$EndComp
$Comp
L GND #PWR035
U 1 1 54F05E49
P 7900 2900
F 0 "#PWR035" H 7900 2650 60  0001 C CNN
F 1 "GND" H 7900 2750 60  0000 C CNN
F 2 "" H 7900 2900 60  0000 C CNN
F 3 "" H 7900 2900 60  0000 C CNN
	1    7900 2900
	1    0    0    -1  
$EndComp
$Comp
L +BATT #PWR036
U 1 1 54F06586
P 7900 2100
F 0 "#PWR036" H 7900 1950 60  0001 C CNN
F 1 "+BATT" H 7900 2240 60  0000 C CNN
F 2 "" H 7900 2100 60  0000 C CNN
F 3 "" H 7900 2100 60  0000 C CNN
	1    7900 2100
	1    0    0    -1  
$EndComp
$Comp
L +BATT #PWR037
U 1 1 54F06CB7
P 6400 2500
F 0 "#PWR037" H 6400 2350 60  0001 C CNN
F 1 "+BATT" V 6400 2750 60  0000 C CNN
F 2 "" H 6400 2500 60  0000 C CNN
F 3 "" H 6400 2500 60  0000 C CNN
	1    6400 2500
	0    1    1    0   
$EndComp
Text Label 1000 1900 2    60   ~ 0
FAN_PWM
Text Label 6400 1700 0    60   ~ 0
SEG_4
Text Label 1000 900  2    60   ~ 0
T4_SENSE
$Comp
L R R16
U 1 1 54F1B47E
P 8750 4600
F 0 "R16" V 8830 4600 50  0000 C CNN
F 1 "4K7" V 8757 4601 50  0000 C CNN
F 2 "Resistors_SMD:R_0603" V 8680 4600 30  0001 C CNN
F 3 "" H 8750 4600 30  0000 C CNN
	1    8750 4600
	0    1    -1   0   
$EndComp
$Comp
L CP2 C10
U 1 1 54F1B485
P 8800 5100
F 0 "C10" H 8850 5200 50  0000 L CNN
F 1 "10u" H 8850 5000 50  0000 L CNN
F 2 "Capacitors_SMD:C_0805" H 8838 4950 30  0001 C CNN
F 3 "" H 8800 5100 60  0000 C CNN
	1    8800 5100
	1    0    0    -1  
$EndComp
$Comp
L C C8
U 1 1 54F1B48C
P 8500 5100
F 0 "C8" H 8550 5200 50  0000 L CNN
F 1 "100n" H 8550 5000 50  0000 L CNN
F 2 "Capacitors_SMD:C_0603" H 8538 4950 30  0001 C CNN
F 3 "" H 8500 5100 60  0000 C CNN
	1    8500 5100
	1    0    0    -1  
$EndComp
$Comp
L +3V3 #PWR038
U 1 1 54F1B493
P 8400 4600
F 0 "#PWR038" H 8400 4450 60  0001 C CNN
F 1 "+3V3" V 8400 4850 60  0000 C CNN
F 2 "" H 8400 4600 60  0000 C CNN
F 3 "" H 8400 4600 60  0000 C CNN
	1    8400 4600
	0    -1   -1   0   
$EndComp
$Comp
L GND #PWR039
U 1 1 54F1B499
P 9300 5300
F 0 "#PWR039" H 9300 5050 60  0001 C CNN
F 1 "GND" H 9300 5150 60  0000 C CNN
F 2 "" H 9300 5300 60  0000 C CNN
F 3 "" H 9300 5300 60  0000 C CNN
	1    9300 5300
	1    0    0    -1  
$EndComp
Text Label 8300 4800 3    60   ~ 0
T3_SENSE
$Comp
L R R7
U 1 1 54F23AC0
P 2550 6050
F 0 "R7" V 2630 6050 40  0000 C CNN
F 1 "330" V 2557 6051 40  0000 C CNN
F 2 "Resistors_SMD:R_0805" V 2480 6050 30  0001 C CNN
F 3 "" H 2550 6050 30  0000 C CNN
	1    2550 6050
	0    -1   -1   0   
$EndComp
$Comp
L R R9
U 1 1 54F259CC
P 2550 7150
F 0 "R9" V 2630 7150 40  0000 C CNN
F 1 "330" V 2557 7151 40  0000 C CNN
F 2 "Resistors_SMD:R_0805" V 2480 7150 30  0001 C CNN
F 3 "" H 2550 7150 30  0000 C CNN
	1    2550 7150
	0    -1   -1   0   
$EndComp
$Comp
L R R5
U 1 1 54F25DED
P 2550 4950
F 0 "R5" V 2630 4950 40  0000 C CNN
F 1 "330" V 2557 4951 40  0000 C CNN
F 2 "Resistors_SMD:R_0805" V 2480 4950 30  0001 C CNN
F 3 "" H 2550 4950 30  0000 C CNN
	1    2550 4950
	0    -1   -1   0   
$EndComp
$Comp
L CP2 C22
U 1 1 54F3167E
P 8800 4000
F 0 "C22" H 8850 4100 50  0000 L CNN
F 1 "220u 16V" H 8400 3900 50  0000 L CNN
F 2 "Capacitors_ThroughHole:Capacitor8x13RM3.8" H 8838 3850 30  0001 C CNN
F 3 "" H 8800 4000 60  0000 C CNN
	1    8800 4000
	-1   0    0    -1  
$EndComp
$Comp
L DIODESCH D7
U 1 1 54F3F735
P 8500 3700
F 0 "D7" H 8500 3800 50  0000 C CNN
F 1 "SS14" H 8500 3600 50  0000 C CNN
F 2 "Diodes_SMD:Diode-SMA_Standard" H 8500 3700 60  0001 C CNN
F 3 "" H 8500 3700 60  0000 C CNN
	1    8500 3700
	1    0    0    -1  
$EndComp
$Comp
L CONN_01X02 P15
U 1 1 54F4234A
P 8250 4200
F 0 "P15" H 8250 4050 50  0000 C CNN
F 1 "5V_AC" V 8350 4200 50  0000 C CNN
F 2 "Pin_Headers:Pin_Header_Straight_1x02" H 8250 4200 60  0001 C CNN
F 3 "" H 8250 4200 60  0000 C CNN
	1    8250 4200
	0    1    1    0   
$EndComp
$Comp
L CP2 C21
U 1 1 54F46974
P 6200 5900
F 0 "C21" H 6250 6000 50  0000 L CNN
F 1 "100u 16V" H 6050 5800 50  0000 L CNN
F 2 "Capacitors_ThroughHole:Capacitor8x13RM3.8" H 6238 5750 30  0001 C CNN
F 3 "" H 6200 5900 60  0000 C CNN
	1    6200 5900
	-1   0    0    -1  
$EndComp
$Comp
L GND #PWR040
U 1 1 54F47615
P 6200 6200
F 0 "#PWR040" H 6200 5950 60  0001 C CNN
F 1 "GND" H 6200 6050 60  0000 C CNN
F 2 "" H 6200 6200 60  0000 C CNN
F 3 "" H 6200 6200 60  0000 C CNN
	1    6200 6200
	1    0    0    -1  
$EndComp
$Comp
L +12V #PWR041
U 1 1 54F47AC1
P 6200 5500
F 0 "#PWR041" H 6200 5350 60  0001 C CNN
F 1 "+12V" H 6200 5640 60  0000 C CNN
F 2 "" H 6200 5500 60  0000 C CNN
F 3 "" H 6200 5500 60  0000 C CNN
	1    6200 5500
	1    0    0    -1  
$EndComp
$Comp
L DIODESCH D6
U 1 1 54F4843A
P 5900 5600
F 0 "D6" H 5900 5700 50  0000 C CNN
F 1 "SS14" H 5900 5500 50  0000 C CNN
F 2 "Diodes_SMD:Diode-SMA_Standard" H 5900 5600 60  0001 C CNN
F 3 "" H 5900 5600 60  0000 C CNN
	1    5900 5600
	1    0    0    -1  
$EndComp
$Comp
L CONN_01X02 P14
U 1 1 54F48EF9
P 5650 6100
F 0 "P14" H 5650 5950 50  0000 C CNN
F 1 "12V_AC" V 5750 6100 50  0000 C CNN
F 2 "Pin_Headers:Pin_Header_Straight_1x02" H 5650 6100 60  0001 C CNN
F 3 "" H 5650 6100 60  0000 C CNN
	1    5650 6100
	0    1    1    0   
$EndComp
$Comp
L GND #PWR042
U 1 1 54F490D3
P 5900 6200
F 0 "#PWR042" H 5900 5950 60  0001 C CNN
F 1 "GND" H 5900 6050 60  0000 C CNN
F 2 "" H 5900 6200 60  0000 C CNN
F 3 "" H 5900 6200 60  0000 C CNN
	1    5900 6200
	1    0    0    -1  
$EndComp
$Comp
L SI2306 Q2
U 1 1 54F5B24A
P 5600 7200
F 0 "Q2" H 5610 7370 50  0000 R CNN
F 1 "SI2306" H 5550 7050 50  0000 R CNN
F 2 "Housings_SOT-23_SOT-143_TSOT-6:SOT23" H 5600 7200 60  0001 C CNN
F 3 "" H 5600 7200 60  0000 C CNN
	1    5600 7200
	1    0    0    -1  
$EndComp
$Comp
L CRYSTAL X1
U 1 1 54F6010B
P 7100 5600
F 0 "X1" H 7100 5750 50  0000 C CNN
F 1 "32768" H 7100 5450 50  0000 C CNN
F 2 "hardware:ClockXtal" H 7100 5600 60  0001 C CNN
F 3 "" H 7100 5600 60  0000 C CNN
	1    7100 5600
	1    0    0    -1  
$EndComp
$Comp
L CONN_01X06 P12
U 1 1 54F63AA1
P 10900 4850
F 0 "P12" H 10900 5200 50  0000 C CNN
F 1 "NTC_100K" V 11000 4850 50  0000 C CNN
F 2 "hardware:RJ12" H 10900 4850 60  0001 C CNN
F 3 "" H 10900 4850 60  0000 C CNN
	1    10900 4850
	1    0    0    1   
$EndComp
$Comp
L CONN_01X06 P13
U 1 1 54F65671
P 10900 5850
F 0 "P13" H 10900 6200 50  0000 C CNN
F 1 "NTC_100K" V 11000 5850 50  0000 C CNN
F 2 "hardware:RJ12" H 10900 5850 60  0001 C CNN
F 3 "" H 10900 5850 60  0000 C CNN
	1    10900 5850
	1    0    0    1   
$EndComp
$Comp
L CONN_01X06 P10
U 1 1 54F65F5F
P 9400 4850
F 0 "P10" H 9400 5200 50  0000 C CNN
F 1 "NTC_100K" V 9500 4850 50  0000 C CNN
F 2 "hardware:RJ12" H 9400 4850 60  0001 C CNN
F 3 "" H 9400 4850 60  0000 C CNN
	1    9400 4850
	1    0    0    1   
$EndComp
$Comp
L CONN_01X06 P11
U 1 1 54F66001
P 9400 5850
F 0 "P11" H 9400 6200 50  0000 C CNN
F 1 "NTC_100K" V 9500 5850 50  0000 C CNN
F 2 "hardware:RJ12" H 9400 5850 60  0001 C CNN
F 3 "" H 9400 5850 60  0000 C CNN
	1    9400 5850
	1    0    0    1   
$EndComp
$Comp
L CONN_01X04 P16
U 1 1 54F8B9A2
P 6700 7250
F 0 "P16" H 6700 7500 50  0000 C CNN
F 1 "UART" V 6800 7250 50  0000 C CNN
F 2 "Pin_Headers:Pin_Header_Straight_1x04" H 6700 7250 60  0001 C CNN
F 3 "" H 6700 7250 60  0000 C CNN
	1    6700 7250
	1    0    0    1   
$EndComp
$Comp
L GND #PWR043
U 1 1 54F8C59A
P 6400 7500
F 0 "#PWR043" H 6400 7250 60  0001 C CNN
F 1 "GND" H 6400 7350 60  0000 C CNN
F 2 "" H 6400 7500 60  0000 C CNN
F 3 "" H 6400 7500 60  0000 C CNN
	1    6400 7500
	1    0    0    -1  
$EndComp
$Comp
L +3V3 #PWR044
U 1 1 54F8D16C
P 6400 7000
F 0 "#PWR044" H 6400 6850 60  0001 C CNN
F 1 "+3V3" H 6400 7140 60  0000 C CNN
F 2 "" H 6400 7000 60  0000 C CNN
F 3 "" H 6400 7000 60  0000 C CNN
	1    6400 7000
	1    0    0    -1  
$EndComp
Text Label 6400 7200 2    60   ~ 0
UART_TX
Text Label 6400 7300 2    60   ~ 0
UART_RX
$Comp
L CONN_01X06 P18
U 1 1 54EEB66C
P 1400 7250
F 0 "P18" H 1400 7600 50  0000 C CNN
F 1 "PWR_CTL" V 1500 7250 50  0000 C CNN
F 2 "Pin_Headers:Pin_Header_Straight_1x06" H 1400 7250 60  0001 C CNN
F 3 "" H 1400 7250 60  0000 C CNN
	1    1400 7250
	-1   0    0    1   
$EndComp
$Comp
L +3V3 #PWR045
U 1 1 54EEC947
P 1700 7000
F 0 "#PWR045" H 1700 6850 60  0001 C CNN
F 1 "+3V3" V 1800 7000 60  0000 C CNN
F 2 "" H 1700 7000 60  0000 C CNN
F 3 "" H 1700 7000 60  0000 C CNN
	1    1700 7000
	0    1    -1   0   
$EndComp
$Comp
L GND #PWR046
U 1 1 54EED1C2
P 1700 7600
F 0 "#PWR046" H 1700 7350 60  0001 C CNN
F 1 "GND" H 1700 7450 60  0000 C CNN
F 2 "" H 1700 7600 60  0000 C CNN
F 3 "" H 1700 7600 60  0000 C CNN
	1    1700 7600
	1    0    0    -1  
$EndComp
$Comp
L CONN_01X06 P17
U 1 1 54EEDF5D
P 1050 7250
F 0 "P17" H 1050 7600 50  0000 C CNN
F 1 "PWR_CTL'" V 1150 7250 50  0000 C CNN
F 2 "Pin_Headers:Pin_Header_Straight_1x06" H 1050 7250 60  0001 C CNN
F 3 "" H 1050 7250 60  0000 C CNN
	1    1050 7250
	1    0    0    1   
$EndComp
$Comp
L GNDPWR #PWR047
U 1 1 54EF0E7A
P 4200 5650
F 0 "#PWR047" H 4200 5450 40  0001 C CNN
F 1 "GNDPWR" H 4200 5520 40  0000 C CNN
F 2 "" H 4200 5600 60  0000 C CNN
F 3 "" H 4200 5600 60  0000 C CNN
	1    4200 5650
	1    0    0    -1  
$EndComp
$Comp
L GNDPWR #PWR048
U 1 1 54EF12AD
P 750 7600
F 0 "#PWR048" H 750 7400 40  0001 C CNN
F 1 "GNDPWR" H 750 7470 40  0000 C CNN
F 2 "" H 750 7550 60  0000 C CNN
F 3 "" H 750 7550 60  0000 C CNN
	1    750  7600
	1    0    0    -1  
$EndComp
$Comp
L VCOM #PWR049
U 1 1 54EF1ADE
P 750 6900
F 0 "#PWR049" H 750 6750 60  0001 C CNN
F 1 "VCOM" H 750 7050 60  0000 C CNN
F 2 "" H 750 6900 60  0000 C CNN
F 3 "" H 750 6900 60  0000 C CNN
	1    750  6900
	1    0    0    -1  
$EndComp
Text Label 1700 7400 0    60   ~ 0
~LOAD_G3
Text Label 1700 7300 0    60   ~ 0
~LOAD_G2
Text Label 1700 7200 0    60   ~ 0
~LOAD_G1
Text Label 1000 6500 2    60   ~ 0
~L_G3
Text Label 750  7200 2    60   ~ 0
~L_G1
Text Label 750  7300 2    60   ~ 0
~L_G2
Text Label 750  7400 2    60   ~ 0
~L_G3
Text Label 750  7100 2    60   ~ 0
~Z_DT
Text Label 3900 5650 3    60   ~ 0
~Z_DT
Wire Wire Line
	1100 2100 1000 2100
Wire Wire Line
	1100 2200 1000 2200
Wire Wire Line
	6400 3200 6300 3200
Wire Wire Line
	6400 2700 6400 3700
Wire Wire Line
	6300 3100 6400 3100
Wire Wire Line
	6300 3000 6400 3000
Connection ~ 6400 3100
Wire Wire Line
	6500 3400 6300 3400
Wire Wire Line
	6500 2800 6500 3600
Wire Wire Line
	6500 3600 6300 3600
Wire Wire Line
	6300 3500 6500 3500
Connection ~ 6500 3500
Wire Wire Line
	10100 4300 10100 4200
Wire Wire Line
	8700 4300 11000 4300
Wire Wire Line
	10400 4300 10400 4200
Wire Wire Line
	10700 4300 10700 4200
Wire Wire Line
	11000 4300 11000 4200
Wire Wire Line
	10100 3700 10100 3800
Wire Wire Line
	9700 3700 11000 3700
Wire Wire Line
	11000 3700 11000 3800
Wire Wire Line
	10700 3800 10700 3700
Connection ~ 10700 3700
Wire Wire Line
	10400 3800 10400 3700
Connection ~ 10400 3700
Wire Wire Line
	1100 2700 1000 2700
Wire Wire Line
	1100 2900 1000 2900
Wire Wire Line
	1100 3000 1000 3000
Wire Wire Line
	1100 3300 1000 3300
Wire Wire Line
	1100 3500 1000 3500
Wire Wire Line
	1100 3600 1000 3600
Wire Wire Line
	1100 2300 1000 2300
Connection ~ 6500 3400
Wire Wire Line
	6300 2700 6400 2700
Connection ~ 6400 3000
Wire Wire Line
	6300 2800 6500 2800
Wire Wire Line
	9800 3600 9800 3800
Wire Wire Line
	9300 4000 9300 4300
Wire Wire Line
	9800 4300 9800 4200
Connection ~ 9300 4300
Wire Wire Line
	8700 3700 8900 3700
Connection ~ 9800 3700
Wire Wire Line
	8800 3600 8800 3800
Wire Wire Line
	1100 1600 1000 1600
Wire Wire Line
	1100 1700 1000 1700
Wire Wire Line
	1100 800  1000 800 
Wire Wire Line
	1100 900  1000 900 
Wire Wire Line
	7500 1200 7400 1200
Wire Wire Line
	7400 1200 7400 1400
Wire Wire Line
	7500 1100 7400 1100
Wire Wire Line
	7400 1100 7400 900 
Wire Wire Line
	7500 1300 7300 1300
Wire Wire Line
	7500 1000 7300 1000
Wire Wire Line
	9700 2600 9800 2600
Wire Wire Line
	9400 2800 9400 2900
Wire Wire Line
	8500 900  8400 900 
Wire Wire Line
	8500 1000 8400 1000
Wire Wire Line
	8500 1100 8400 1100
Wire Wire Line
	8500 1200 8400 1200
Wire Wire Line
	8500 1500 8400 1500
Wire Wire Line
	8500 1600 8400 1600
Wire Wire Line
	8500 1700 8400 1700
Wire Wire Line
	8500 1800 8400 1800
Wire Wire Line
	9800 2600 9800 2700
Wire Wire Line
	10000 2800 10000 2900
Wire Wire Line
	10300 2600 10400 2600
Wire Wire Line
	10400 2600 10400 2700
Wire Wire Line
	10900 2600 11000 2600
Wire Wire Line
	11000 2600 11000 2700
Wire Wire Line
	9800 3200 9800 3300
Wire Wire Line
	10400 3200 10400 3300
Wire Wire Line
	11000 3200 11000 3300
Wire Wire Line
	6400 800  6300 800 
Wire Wire Line
	6400 900  6300 900 
Wire Wire Line
	6400 1000 6300 1000
Wire Wire Line
	6400 1100 6300 1100
Wire Wire Line
	6400 1200 6300 1200
Wire Wire Line
	6400 1300 6300 1300
Wire Wire Line
	6400 1400 6300 1400
Wire Wire Line
	6400 1500 6300 1500
Wire Wire Line
	6400 1600 6300 1600
Wire Wire Line
	6400 1700 6300 1700
Wire Wire Line
	6400 1800 6300 1800
Wire Wire Line
	6400 1900 6300 1900
Wire Wire Line
	6400 2000 6300 2000
Wire Wire Line
	6400 2100 6300 2100
Wire Wire Line
	6400 2200 6300 2200
Wire Wire Line
	6400 2300 6300 2300
Wire Wire Line
	10600 1150 10900 1150
Wire Wire Line
	10600 2900 10600 2800
Wire Wire Line
	10900 1150 10900 2200
Wire Wire Line
	8900 900  9600 900 
Wire Wire Line
	9600 1400 9100 1400
Wire Wire Line
	9100 1400 9100 1000
Wire Wire Line
	9100 1000 8900 1000
Wire Wire Line
	9600 1000 9200 1000
Wire Wire Line
	9200 1000 9200 1100
Wire Wire Line
	9200 1100 8900 1100
Wire Wire Line
	9600 1500 9200 1500
Wire Wire Line
	9200 1500 9200 1200
Wire Wire Line
	9200 1200 8900 1200
Wire Wire Line
	9600 1100 9300 1100
Wire Wire Line
	9300 1100 9300 1300
Wire Wire Line
	9300 1300 9000 1300
Wire Wire Line
	9000 1300 9000 1500
Wire Wire Line
	9000 1500 8900 1500
Wire Wire Line
	9600 1600 8900 1600
Wire Wire Line
	9600 1200 9400 1200
Wire Wire Line
	9400 1200 9400 1700
Wire Wire Line
	9400 1700 8900 1700
Wire Wire Line
	9600 1300 9500 1300
Wire Wire Line
	9500 1300 9500 1800
Wire Wire Line
	9500 1800 8900 1800
Wire Wire Line
	1100 1000 1000 1000
Wire Wire Line
	1100 1100 1000 1100
Wire Wire Line
	1000 1800 1100 1800
Wire Wire Line
	1000 1900 1100 1900
Wire Wire Line
	1000 2000 1100 2000
Wire Wire Line
	1100 1200 1000 1200
Wire Wire Line
	1100 1300 1000 1300
Wire Wire Line
	1100 1400 1000 1400
Wire Wire Line
	1100 1500 1000 1500
Wire Wire Line
	1100 2500 1000 2500
Wire Wire Line
	9800 5800 10700 5800
Wire Wire Line
	10600 5600 10600 5800
Wire Wire Line
	10700 5900 10600 5900
Wire Wire Line
	10600 5900 10600 6400
Wire Wire Line
	10300 5800 10300 5900
Connection ~ 10600 5800
Wire Wire Line
	10300 6300 10300 6400
Wire Wire Line
	10600 6400 10000 6400
Wire Wire Line
	10000 5800 10000 5900
Connection ~ 10300 5800
Wire Wire Line
	10000 6400 10000 6300
Connection ~ 10300 6400
Wire Wire Line
	10000 5600 9900 5600
Connection ~ 10000 5800
Wire Wire Line
	10600 5600 10500 5600
Wire Wire Line
	10800 6300 10800 6200
Wire Wire Line
	10800 6200 10600 6200
Connection ~ 10600 6200
Wire Wire Line
	9800 4800 10700 4800
Wire Wire Line
	10600 4600 10600 4800
Wire Wire Line
	10700 4900 10600 4900
Wire Wire Line
	10600 4900 10600 5400
Wire Wire Line
	10300 4800 10300 4900
Connection ~ 10600 4800
Wire Wire Line
	10300 5300 10300 5400
Wire Wire Line
	10600 5400 10000 5400
Wire Wire Line
	10000 4800 10000 4900
Connection ~ 10300 4800
Wire Wire Line
	10000 5400 10000 5300
Connection ~ 10300 5400
Wire Wire Line
	10000 4600 9900 4600
Connection ~ 10000 4800
Wire Wire Line
	10600 4600 10500 4600
Wire Wire Line
	10800 5300 10800 5200
Wire Wire Line
	10800 5200 10600 5200
Connection ~ 10600 5200
Wire Wire Line
	6900 3800 8000 3800
Wire Wire Line
	7000 3800 7000 3500
Wire Wire Line
	7000 3500 7100 3500
Wire Wire Line
	7900 3400 8000 3400
Wire Wire Line
	6900 3400 7100 3400
Wire Wire Line
	7100 3600 6900 3600
Wire Wire Line
	7900 3600 8000 3600
Wire Wire Line
	8000 3600 8000 3800
Connection ~ 6400 3200
Wire Wire Line
	8400 2900 8400 2800
Wire Wire Line
	8400 2400 8400 2300
Wire Wire Line
	7200 2050 7100 2050
Wire Wire Line
	7100 2050 7100 2150
Wire Wire Line
	7200 1950 7100 1950
Wire Wire Line
	7100 1950 7100 1850
Wire Wire Line
	7200 2700 7100 2700
Wire Wire Line
	7100 2700 7100 2600
Wire Wire Line
	7200 2800 7100 2800
Wire Wire Line
	7100 2800 7100 2900
Wire Wire Line
	10600 1350 10800 1350
Wire Wire Line
	10800 1350 10800 2100
Wire Wire Line
	10600 1550 10700 1550
Wire Wire Line
	10700 1550 10700 2000
Wire Wire Line
	10700 2000 8800 2000
Wire Wire Line
	9100 2600 9200 2600
Wire Wire Line
	8800 2800 8800 2900
Wire Wire Line
	9200 2600 9200 2700
Wire Wire Line
	9200 3200 9200 3300
Wire Wire Line
	8800 2000 8800 2400
Wire Wire Line
	10600 950  11000 950 
Wire Wire Line
	11000 950  11000 2300
Wire Wire Line
	11000 2300 10600 2300
Wire Wire Line
	10600 2300 10600 2400
Wire Wire Line
	10900 2200 10000 2200
Wire Wire Line
	10000 2200 10000 2400
Wire Wire Line
	10800 2100 9400 2100
Wire Wire Line
	9400 2100 9400 2400
Wire Wire Line
	7800 4100 7900 4100
Wire Wire Line
	7800 4200 7900 4200
Wire Wire Line
	6400 4100 6300 4100
Wire Wire Line
	6300 4100 6300 5200
Wire Wire Line
	6300 5200 6400 5200
Wire Wire Line
	7900 4600 7900 4500
Wire Wire Line
	7900 5000 7900 5100
Wire Wire Line
	6400 4600 6200 4600
Wire Wire Line
	6400 4700 6200 4700
Wire Wire Line
	6400 4800 6200 4800
Wire Wire Line
	6400 4900 6200 4900
Wire Wire Line
	6400 5000 6200 5000
Wire Wire Line
	6400 5100 6200 5100
Wire Wire Line
	1400 4100 1300 4100
Wire Wire Line
	1400 4300 1000 4300
Wire Wire Line
	2900 4100 2900 4200
Wire Wire Line
	3900 5650 3900 5550
Wire Wire Line
	2800 4100 3000 4100
Connection ~ 2900 4100
Wire Wire Line
	2100 4100 2300 4100
Wire Wire Line
	2400 4800 2200 4800
Wire Wire Line
	2200 4300 2200 4950
Wire Wire Line
	2200 4300 2100 4300
Wire Wire Line
	4500 6300 4400 6300
Wire Wire Line
	4500 6200 4400 6200
Wire Wire Line
	1400 5200 1300 5200
Wire Wire Line
	1400 5400 1000 5400
Wire Wire Line
	2900 5200 2900 5300
Wire Wire Line
	2800 5200 3000 5200
Wire Wire Line
	2100 5200 2300 5200
Wire Wire Line
	2400 5900 2200 5900
Wire Wire Line
	2200 5400 2200 6050
Wire Wire Line
	2200 5400 2100 5400
Wire Wire Line
	1400 6300 1300 6300
Wire Wire Line
	1400 6500 1000 6500
Wire Wire Line
	2900 6300 2900 6400
Wire Wire Line
	2800 6300 3000 6300
Wire Wire Line
	2100 6300 2300 6300
Wire Wire Line
	2400 7000 2200 7000
Wire Wire Line
	2200 6500 2200 7150
Wire Wire Line
	2200 6500 2100 6500
Wire Wire Line
	800  4100 700  4100
Wire Wire Line
	800  6300 700  6300
Wire Wire Line
	700  5200 800  5200
Wire Wire Line
	2800 4950 3300 4950
Wire Wire Line
	2900 4950 2900 4850
Wire Wire Line
	2900 5950 2900 6050
Wire Wire Line
	2800 6050 3300 6050
Wire Wire Line
	2900 7050 2900 7150
Wire Wire Line
	2800 7150 3300 7150
Connection ~ 2900 5200
Connection ~ 2900 6300
Wire Wire Line
	3300 4850 3200 4850
Wire Wire Line
	3300 7050 3200 7050
Wire Wire Line
	3300 5950 3200 5950
Wire Wire Line
	6400 4500 6100 4500
Wire Wire Line
	6100 4300 6300 4300
Connection ~ 6300 4300
Connection ~ 7000 3800
Connection ~ 10700 4300
Connection ~ 10400 4300
Connection ~ 9800 4300
Connection ~ 10100 4300
Connection ~ 10100 3700
Wire Wire Line
	8300 5800 9200 5800
Wire Wire Line
	9100 5600 9100 5800
Wire Wire Line
	9200 5900 9100 5900
Wire Wire Line
	9100 5900 9100 6400
Wire Wire Line
	8800 5800 8800 5900
Connection ~ 9100 5800
Wire Wire Line
	8800 6300 8800 6400
Wire Wire Line
	9100 6400 8500 6400
Wire Wire Line
	8500 5800 8500 5900
Connection ~ 8800 5800
Wire Wire Line
	8500 6400 8500 6300
Connection ~ 8800 6400
Wire Wire Line
	8500 5600 8400 5600
Connection ~ 8500 5800
Wire Wire Line
	9100 5600 9000 5600
Wire Wire Line
	9300 6300 9300 6200
Wire Wire Line
	9300 6200 9100 6200
Connection ~ 9100 6200
Wire Wire Line
	4000 7000 4800 7000
Wire Wire Line
	4700 6800 4700 7000
Wire Wire Line
	4800 7100 4700 7100
Wire Wire Line
	4700 7100 4700 7600
Wire Wire Line
	4400 7000 4400 7100
Connection ~ 4700 7000
Wire Wire Line
	4400 7500 4400 7600
Wire Wire Line
	4700 7600 4100 7600
Wire Wire Line
	4100 7000 4100 7100
Connection ~ 4400 7000
Wire Wire Line
	4100 7600 4100 7500
Connection ~ 4400 7600
Wire Wire Line
	4100 6800 4000 6800
Connection ~ 4100 7000
Wire Wire Line
	4700 6800 4600 6800
Wire Wire Line
	4900 7500 4900 7300
Wire Wire Line
	4900 7300 4700 7300
Connection ~ 4700 7300
Wire Wire Line
	4200 5550 4200 5650
Wire Wire Line
	4600 4700 4600 4600
Wire Wire Line
	4600 5200 4600 5400
Wire Wire Line
	4600 5300 4800 5300
Connection ~ 4600 5300
Wire Wire Line
	4400 4200 4400 5800
Wire Wire Line
	4400 5600 5400 5600
Wire Wire Line
	4600 4100 4600 4200
Wire Wire Line
	3900 4100 4600 4100
Wire Wire Line
	4900 4400 5400 4400
Wire Wire Line
	5200 4400 5200 4700
Wire Wire Line
	5200 5200 5200 5600
Wire Wire Line
	4800 5300 4800 5150
Wire Wire Line
	4800 4750 4800 4600
Wire Wire Line
	4800 4600 5200 4600
Connection ~ 5200 4600
Wire Wire Line
	4600 5400 4700 5400
Wire Wire Line
	5100 5400 5200 5400
Connection ~ 5200 5400
Wire Wire Line
	5400 4400 5400 4750
Wire Wire Line
	5400 5600 5400 5150
Connection ~ 5200 4400
Connection ~ 5200 5600
Wire Wire Line
	5600 4800 5600 4900
Wire Wire Line
	4400 5800 4500 5800
Connection ~ 4400 5600
Wire Wire Line
	5000 5800 5100 5800
Wire Wire Line
	5500 4200 5600 4200
Wire Wire Line
	5600 4200 5600 4300
Wire Wire Line
	5100 4200 5000 4200
Wire Wire Line
	5000 4200 5000 4400
Connection ~ 5000 4400
Wire Wire Line
	3900 4100 3900 4300
Wire Wire Line
	4200 4300 4200 4200
Wire Wire Line
	4200 4200 4400 4200
Wire Wire Line
	5700 7400 5700 7500
Wire Wire Line
	5800 6900 5700 6900
Wire Wire Line
	5700 6900 5700 7000
Wire Wire Line
	5400 7200 5300 7200
Wire Wire Line
	5300 7200 5300 7100
Wire Wire Line
	5300 6600 5300 6500
Wire Wire Line
	5800 6800 5700 6800
Wire Wire Line
	5700 6800 5700 6700
Wire Wire Line
	7500 5700 7500 5600
Wire Wire Line
	7500 5600 7400 5600
Wire Wire Line
	6800 5600 6700 5600
Wire Wire Line
	6700 5600 6700 5700
Wire Wire Line
	6700 6100 6700 6200
Wire Wire Line
	7500 6100 7500 6200
Wire Wire Line
	7900 2800 7900 2900
Wire Wire Line
	7900 2200 7900 2100
Wire Wire Line
	6400 2500 6300 2500
Wire Wire Line
	6600 2800 6600 2900
Wire Wire Line
	6600 2900 6500 2900
Connection ~ 6500 2900
Wire Wire Line
	8300 4800 9200 4800
Wire Wire Line
	9100 4600 9100 4800
Wire Wire Line
	9200 4900 9100 4900
Wire Wire Line
	9100 4900 9100 5400
Wire Wire Line
	8800 4800 8800 4900
Connection ~ 9100 4800
Wire Wire Line
	8800 5300 8800 5400
Wire Wire Line
	9100 5400 8500 5400
Wire Wire Line
	8500 4800 8500 4900
Connection ~ 8800 4800
Wire Wire Line
	8500 5400 8500 5300
Connection ~ 8800 5400
Wire Wire Line
	8500 4600 8400 4600
Connection ~ 8500 4800
Wire Wire Line
	9100 4600 9000 4600
Wire Wire Line
	9300 5300 9300 5200
Wire Wire Line
	9300 5200 9100 5200
Connection ~ 9100 5200
Connection ~ 2900 6050
Wire Wire Line
	2200 6050 2300 6050
Connection ~ 2200 5900
Connection ~ 2900 7150
Wire Wire Line
	2200 7150 2300 7150
Connection ~ 2200 7000
Connection ~ 2900 4950
Wire Wire Line
	2200 4950 2300 4950
Connection ~ 2200 4800
Connection ~ 8800 3700
Wire Wire Line
	8800 4200 8800 4300
Connection ~ 8800 4300
Wire Wire Line
	8300 3700 8200 3700
Wire Wire Line
	8200 3700 8200 4000
Wire Wire Line
	8300 4000 8300 3900
Wire Wire Line
	8300 3900 8500 3900
Wire Wire Line
	8500 3900 8500 4200
Wire Wire Line
	8700 4300 8700 4100
Wire Wire Line
	8700 4100 8500 4100
Connection ~ 8500 4100
Wire Wire Line
	6200 6100 6200 6200
Wire Wire Line
	6200 5500 6200 5700
Wire Wire Line
	6200 5600 6100 5600
Connection ~ 6200 5600
Wire Wire Line
	5700 5600 5600 5600
Wire Wire Line
	5600 5600 5600 5900
Wire Wire Line
	5700 5900 5700 5800
Wire Wire Line
	5700 5800 5900 5800
Wire Wire Line
	5900 5800 5900 6200
Wire Wire Line
	6500 7400 6400 7400
Wire Wire Line
	6400 7400 6400 7500
Wire Wire Line
	6500 7100 6400 7100
Wire Wire Line
	6400 7100 6400 7000
Wire Wire Line
	6500 7200 6400 7200
Wire Wire Line
	6500 7300 6400 7300
Wire Wire Line
	1700 7000 1600 7000
Wire Wire Line
	1600 7500 1700 7500
Wire Wire Line
	1700 7500 1700 7600
Wire Wire Line
	1600 7100 1700 7100
Wire Wire Line
	1600 7200 1700 7200
Wire Wire Line
	1600 7300 1700 7300
Wire Wire Line
	1600 7400 1700 7400
Wire Wire Line
	850  7000 750  7000
Wire Wire Line
	850  7100 750  7100
Wire Wire Line
	850  7200 750  7200
Wire Wire Line
	850  7300 750  7300
Wire Wire Line
	850  7400 750  7400
Wire Wire Line
	850  7500 750  7500
Wire Wire Line
	750  7500 750  7600
Wire Wire Line
	750  7000 750  6900
Wire Wire Line
	700  6300 700  6200
Wire Wire Line
	700  5200 700  5100
Wire Wire Line
	700  4100 700  4000
$Comp
L VCOM #PWR050
U 1 1 54EFF5BC
P 700 6200
F 0 "#PWR050" H 700 6050 60  0001 C CNN
F 1 "VCOM" H 700 6350 60  0000 C CNN
F 2 "" H 700 6200 60  0000 C CNN
F 3 "" H 700 6200 60  0000 C CNN
	1    700  6200
	1    0    0    -1  
$EndComp
$Comp
L VCOM #PWR051
U 1 1 54EFF621
P 700 5100
F 0 "#PWR051" H 700 4950 60  0001 C CNN
F 1 "VCOM" H 700 5250 60  0000 C CNN
F 2 "" H 700 5100 60  0000 C CNN
F 3 "" H 700 5100 60  0000 C CNN
	1    700  5100
	1    0    0    -1  
$EndComp
$Comp
L VCOM #PWR052
U 1 1 54EFF794
P 700 4000
F 0 "#PWR052" H 700 3850 60  0001 C CNN
F 1 "VCOM" H 700 4150 60  0000 C CNN
F 2 "" H 700 4000 60  0000 C CNN
F 3 "" H 700 4000 60  0000 C CNN
	1    700  4000
	1    0    0    -1  
$EndComp
$EndSCHEMATC
